<svg width="100%" height="100%" viewBox="0 0 461 200" fill="none" xmlns="http://www.w3.org/2000/svg">
<path d="M194.096 94.7486C192.601 95.2791 191.854 96.3639 191.854 98.0033C191.854 100.704 193.734 102.054 197.495 102.054C201.883 102.054 211.817 93.2297 227.295 75.582C252.128 47.2778 266.737 30.9078 271.125 26.4717C288.629 8.82396 302.033 0 311.34 0C312.401 0 313.557 0.144634 314.81 0.433901L315.535 1.01244V1.30189C314.762 2.60378 312.786 5.11101 309.603 8.82395C307.047 11.6687 303.311 15.9843 298.392 21.7704C296.465 24.1332 286.941 36.718 269.822 59.5252C266.207 64.2506 260.903 71.411 253.911 81.0064C252.128 83.2245 249.474 86.5756 245.955 91.06C242.484 95.6888 240.748 98.8955 240.748 100.68C240.748 101.355 241.084 101.692 241.76 101.692C244.026 101.692 252.367 92.9645 266.786 75.5095C286.265 51.9792 300.321 35.7778 308.952 26.9058C325.925 9.45076 338.607 0.723171 346.997 0.723171C347.624 0.723171 348.058 0.964351 348.299 1.44653V1.88043C347.816 2.65187 345.792 5.35219 342.224 9.98103C339.763 13.0189 336.1 17.6238 331.229 23.7957C323.756 33.6321 314.159 46.8439 302.443 63.4309C286.821 85.563 279.009 97.8346 279.009 100.245C279.009 101.355 279.683 101.909 281.034 101.909C283.88 101.909 288.965 99.4498 296.294 94.5316C301.696 90.8671 306.494 87.2507 310.688 83.6826L312.135 85.563C303.648 91.9278 298.538 95.7129 296.801 96.9185C289.424 101.837 283.902 104.296 280.239 104.296C275.273 104.296 272.788 101.403 272.788 95.6166C272.788 85.1049 282.143 69.2171 300.852 47.9528C306.928 41.0095 320.717 26.8333 342.224 5.42441L342.802 3.97789L342.512 3.68863C338.27 4.6047 331.061 9.64367 320.886 18.805C308.35 30.0881 291.714 48.7484 270.98 74.7864C255.406 94.3147 245.233 104.079 240.458 104.079C237.47 104.079 235.974 101.981 235.974 97.7863C235.974 81.1029 256.467 53.6186 297.453 15.3334C301.357 11.8134 305.433 7.85942 309.676 3.47158L309.313 3.25473C301.311 4.31543 288.894 13.6457 272.066 31.2453C257.647 47.2055 243.206 63.1657 228.741 79.1259C213.022 96.0505 202.269 104.513 196.483 104.513C194.265 104.513 192.421 103.85 190.95 102.524C189.479 101.198 188.744 99.4498 188.744 97.2802C188.744 95.6606 188.956 94.1534 189.381 92.7589C185.992 94.6021 182.541 95.7717 179.025 96.2675L174.758 102.632H160.944L165.283 96.1229C159.738 93.9048 156.676 92.6511 156.098 92.3619C152.771 90.8671 149.95 89.2035 147.635 87.3712C147.201 87.0336 146.55 86.5275 145.683 85.8524C131.94 98.2926 119.596 104.513 108.651 104.513C106.047 104.513 103.829 103.693 101.997 102.054C100.02 100.366 99.0311 98.2445 99.0311 95.6888C99.0311 92.6511 99.9474 89.8062 101.78 87.1543C103.757 84.213 106.192 82.7423 109.085 82.7423C112.171 82.7423 113.714 84.2852 113.714 87.3712C113.714 90.3608 112.219 92.1931 109.229 92.8682C108.892 92.8199 108.132 92.5548 106.951 92.0724C105.77 91.5902 105.107 91.3492 104.962 91.3492C102.696 91.3492 101.563 92.9404 101.563 96.1229C101.563 97.8587 102.527 99.2811 104.456 100.39C106.095 101.403 107.831 101.909 109.663 101.909C114.967 101.909 120.995 99.7874 127.745 95.5442C130.687 93.7118 135.918 89.8062 143.44 83.8272C134.761 73.3157 130.421 62.8523 130.421 52.4372C130.421 45.9759 131.844 40.5273 134.689 36.0912C138.064 30.9802 142.814 28.4245 148.937 28.4245C160.076 28.4245 168.369 36.5251 173.818 52.7265C190.116 35.4161 199.88 25.2422 203.111 22.2043C217.769 8.414 228.932 1.51875 236.598 1.51875C236.983 1.51875 237.9 1.59116 239.346 1.73579L240.36 2.31452L240.214 2.96545C238.527 4.70124 236.719 7.06384 234.79 10.0534C233.2 12.5609 231.607 15.0681 230.017 17.5755C218.203 34.8376 201.809 60.1281 180.834 93.4467C185.601 91.8475 189.514 89.8363 192.575 87.4133C192.611 87.3843 192.647 87.3575 192.683 87.3326C194.285 85.8635 196.226 85.1291 198.508 85.1291C201.98 85.1291 203.716 86.7685 203.716 90.0474C203.716 91.3975 203.197 92.6994 202.161 93.953C201.124 95.2066 199.906 95.8335 198.508 95.8335C196.965 95.8335 195.591 95.472 194.385 94.7486H194.096ZM166.73 93.0128C170.828 84.4781 172.878 75.172 172.878 65.0944C172.878 62.6836 172.661 60.5861 172.227 58.802L147.925 83.8272C151.927 87.0578 154.796 89.1072 156.532 89.975C158.653 91.0359 162.053 92.0485 166.73 93.0128ZM235.441 4.12253H234.573C229.027 4.12253 218.661 11.3553 203.472 25.8207C198.988 30.1605 189.368 40.1174 174.613 55.692C174.903 59.694 175.048 63.3828 175.048 66.758C175.048 68.6867 174.3 74.5211 172.805 84.2611C186.548 65.1668 202.894 44.3847 221.844 21.9151C224.013 19.4078 227.244 15.5985 231.536 10.4873C232.644 9.23372 234.09 7.30502 235.875 4.70125L235.441 4.12253ZM171.648 55.1856C170.394 49.303 167.959 44.1679 164.343 39.78C160.148 34.6688 155.302 32.1133 149.805 32.1133C144.694 32.1133 140.644 34.4759 137.654 39.2013C135.05 43.2516 133.748 47.977 133.748 53.3774C133.748 63.7925 137.823 73.2433 145.972 81.7297C156.339 71.9897 164.898 63.1416 171.648 55.1856Z" fill="white"/>
<path d="M14.3761 159.98C14.3761 160.105 14.3449 160.198 14.3138 160.261C14.2514 160.354 14.1266 160.448 13.9707 160.479C13.8148 160.541 13.5965 160.572 13.347 160.604C13.0664 160.635 12.7233 160.666 12.2868 160.666C11.6319 160.666 11.1641 160.635 10.8834 160.572C10.5716 160.541 10.3845 160.448 10.2598 160.354C10.135 160.261 10.0103 160.136 9.9479 159.98L3.99164 150.656V159.98C3.99164 160.105 3.96045 160.198 3.89808 160.292C3.83571 160.354 3.74216 160.448 3.58624 160.479C3.43031 160.541 3.2432 160.572 2.99373 160.604C2.71307 160.635 2.40122 160.666 1.99582 160.666C1.6216 160.666 1.30976 160.635 1.02909 160.604C0.779616 160.572 0.561324 160.541 0.436585 160.479C0.280662 160.448 0.155923 160.354 0.0935539 160.292C0.0311846 160.198 0 160.105 0 159.98V141.425C0 141.332 0.0311846 141.238 0.0935539 141.144C0.155923 141.051 0.280662 140.989 0.436585 140.957C0.561324 140.895 0.779616 140.864 1.02909 140.833C1.30976 140.801 1.6216 140.77 1.99582 140.77C2.40122 140.77 2.71307 140.801 2.99373 140.833C3.2432 140.864 3.43031 140.895 3.58624 140.957C3.74216 140.989 3.83571 141.051 3.89808 141.144C3.96045 141.238 3.99164 141.332 3.99164 141.425V149.814L9.7608 141.456C9.85435 141.3 9.91672 141.207 10.0415 141.113C10.135 141.02 10.2598 140.957 10.4157 140.926C10.6028 140.864 10.7899 140.833 11.0394 140.801C11.2888 140.801 11.6319 140.77 12.0373 140.77C12.4427 140.77 12.7545 140.801 13.0352 140.833C13.2847 140.864 13.503 140.895 13.6589 140.957C13.8148 141.02 13.9395 141.082 14.0019 141.144C14.0643 141.238 14.0955 141.332 14.0955 141.425C14.0955 141.612 14.0331 141.768 13.9395 141.955C13.846 142.142 13.6901 142.423 13.4406 142.828L8.01446 149.907L13.9084 158.826C14.1266 159.232 14.2826 159.512 14.3138 159.637C14.3761 159.793 14.3761 159.886 14.3761 159.98Z" fill="white"/>
<path d="M34.7447 159.076C34.8695 159.45 34.963 159.731 34.9942 159.949C35.0254 160.167 34.963 160.323 34.8695 160.417C34.7447 160.541 34.5576 160.604 34.277 160.635C33.9963 160.666 33.5909 160.666 33.092 160.666C32.593 160.666 32.1876 160.666 31.8758 160.635C31.5951 160.635 31.3768 160.604 31.2209 160.541C31.065 160.51 30.9714 160.448 30.909 160.354C30.8467 160.292 30.7843 160.167 30.7531 160.042L29.4434 156.082H22.0214L20.774 159.918C20.7428 160.074 20.6805 160.198 20.6181 160.292C20.5557 160.385 20.4622 160.479 20.3063 160.51C20.1503 160.573 19.932 160.604 19.6826 160.635C19.4019 160.666 19.0589 160.666 18.6223 160.666C18.1545 160.666 17.7803 160.635 17.5308 160.604C17.2502 160.572 17.0631 160.51 16.9695 160.385C16.876 160.292 16.8448 160.105 16.876 159.918C16.9071 159.699 16.9695 159.419 17.0942 159.044L23.1752 141.581C23.2376 141.394 23.3 141.269 23.3935 141.144C23.4559 141.051 23.5806 140.957 23.7678 140.895C23.9549 140.864 24.2043 140.801 24.5162 140.801C24.828 140.77 25.2334 140.77 25.7636 140.77C26.3561 140.77 26.8239 140.77 27.1981 140.801C27.5411 140.801 27.8218 140.864 28.0089 140.895C28.2272 140.957 28.3519 141.051 28.4455 141.144C28.539 141.269 28.6014 141.425 28.6637 141.612L34.7447 159.076ZM25.7012 144.637L22.9258 152.995H28.5078L25.7012 144.637Z" fill="white"/>
<path d="M55.3162 159.185C55.3162 159.434 55.285 159.621 55.1914 159.808C55.0979 159.996 55.0043 160.151 54.8484 160.276C54.7237 160.401 54.5677 160.495 54.3806 160.526C54.1935 160.588 54.0064 160.619 53.8193 160.619H52.1042C51.7299 160.619 51.4493 160.588 51.1686 160.526C50.9191 160.432 50.6697 160.307 50.4514 160.12C50.2331 159.933 50.046 159.684 49.8277 159.372C49.6406 159.029 49.3911 158.623 49.1416 158.124L44.2456 148.894C43.965 148.364 43.6531 147.771 43.3725 147.147C43.0918 146.493 42.8111 145.869 42.5928 145.276H42.5617C42.5928 146.025 42.624 146.742 42.6552 147.459C42.6552 148.208 42.6864 148.956 42.6864 149.705V160.027C42.6864 160.12 42.6552 160.214 42.5928 160.307C42.5305 160.37 42.4369 160.463 42.3122 160.495C42.1563 160.557 41.9691 160.588 41.7509 160.619C41.5014 160.65 41.2207 160.682 40.8465 160.682C40.5035 160.682 40.1916 160.65 39.9733 160.619C39.7238 160.588 39.5367 160.557 39.412 160.495C39.2873 160.463 39.1937 160.37 39.1313 160.307C39.1002 160.214 39.069 160.12 39.069 160.027V142.314C39.069 141.846 39.1937 141.472 39.4744 141.254C39.755 141.004 40.0981 140.879 40.5035 140.879H42.6552C43.0294 140.879 43.3725 140.911 43.6219 140.973C43.9026 141.035 44.1209 141.16 44.3392 141.316C44.5575 141.472 44.7446 141.659 44.9317 141.94C45.1188 142.22 45.3059 142.532 45.493 142.938L49.3287 150.141C49.547 150.578 49.7653 151.014 49.9836 151.42C50.2019 151.856 50.4202 152.262 50.6073 152.698C50.8256 153.104 51.0127 153.54 51.1998 153.946C51.4181 154.351 51.6052 154.757 51.7923 155.162C51.7611 154.445 51.7299 153.696 51.7299 152.917C51.6988 152.168 51.6988 151.42 51.6988 150.734V141.472C51.6988 141.378 51.7299 141.285 51.7923 141.191C51.8547 141.129 51.9482 141.066 52.1042 141.004C52.2289 140.942 52.416 140.879 52.6655 140.848C52.8838 140.848 53.1956 140.817 53.5698 140.817C53.9129 140.817 54.1935 140.848 54.443 140.848C54.6613 140.879 54.8484 140.942 54.9731 141.004C55.0979 141.066 55.1914 141.129 55.2226 141.191C55.285 141.285 55.3162 141.378 55.3162 141.472V159.185Z" fill="white"/>
<path d="M74.8064 157.61C74.8064 157.859 74.8064 158.077 74.7752 158.264C74.7752 158.452 74.744 158.607 74.7128 158.732C74.6816 158.857 74.6505 158.95 74.5881 159.044C74.5257 159.138 74.4633 159.231 74.3386 159.356C74.2451 159.481 74.0268 159.637 73.6837 159.824C73.3719 159.98 72.9977 160.167 72.5299 160.323C72.0621 160.51 71.532 160.634 70.9395 160.759C70.347 160.853 69.6921 160.915 69.006 160.915C67.6651 160.915 66.4489 160.728 65.3574 160.291C64.266 159.886 63.3616 159.262 62.582 158.42C61.8336 157.61 61.2411 156.58 60.8357 155.333C60.4303 154.086 60.2432 152.651 60.2432 150.998C60.2432 149.346 60.4615 147.849 60.898 146.539C61.3346 145.26 61.9583 144.169 62.7691 143.265C63.5799 142.391 64.5466 141.737 65.6693 141.269C66.7919 140.801 68.0081 140.583 69.3803 140.583C69.9104 140.583 70.4405 140.614 70.9395 140.707C71.4696 140.801 71.9374 140.926 72.3428 141.082C72.7794 141.206 73.1848 141.394 73.5278 141.581C73.8708 141.768 74.1203 141.955 74.2451 142.08C74.3698 142.204 74.4633 142.329 74.5257 142.423C74.5881 142.516 74.6193 142.641 74.6505 142.766C74.6816 142.922 74.7128 143.077 74.7128 143.265C74.744 143.483 74.744 143.701 74.744 143.982C74.744 144.294 74.744 144.543 74.7128 144.761C74.6816 144.98 74.6505 145.167 74.6193 145.292C74.5569 145.416 74.4945 145.51 74.4322 145.572C74.3386 145.635 74.2762 145.666 74.1827 145.666C74.0268 145.666 73.8397 145.572 73.5902 145.385C73.3719 145.229 73.06 145.011 72.6858 144.793C72.3116 144.574 71.875 144.387 71.3761 144.2C70.8459 144.044 70.2534 143.951 69.5362 143.951C68.7566 143.951 68.0393 144.107 67.4468 144.418C66.8231 144.73 66.293 145.198 65.8564 145.791C65.451 146.383 65.108 147.1 64.8897 147.942C64.6714 148.784 64.5466 149.751 64.5466 150.811C64.5466 151.965 64.6714 152.963 64.9209 153.805C65.1391 154.647 65.4822 155.364 65.9188 155.894C66.3865 156.456 66.9167 156.861 67.5404 157.111C68.1641 157.391 68.8501 157.516 69.6297 157.516C70.347 157.516 70.9707 157.454 71.4696 157.266C71.9998 157.111 72.4363 156.923 72.8106 156.705C73.1848 156.518 73.4966 156.331 73.7149 156.175C73.9644 156.019 74.1515 155.926 74.2762 155.926C74.401 155.926 74.4633 155.957 74.5257 155.988C74.5881 156.019 74.6505 156.113 74.6816 156.237C74.7128 156.362 74.744 156.518 74.7752 156.736C74.8064 156.955 74.8064 157.266 74.8064 157.61Z" fill="white"/>
<path d="M90.9253 159.013C90.9253 159.294 90.9253 159.544 90.8941 159.731C90.8629 159.949 90.8317 160.105 90.7693 160.23C90.7382 160.354 90.6758 160.448 90.5822 160.479C90.5199 160.541 90.4263 160.573 90.3328 160.573H80.4472C80.1042 160.573 79.8235 160.479 79.6052 160.261C79.3869 160.074 79.2622 159.762 79.2622 159.294V142.143C79.2622 141.675 79.3869 141.363 79.6052 141.176C79.8235 140.958 80.1042 140.864 80.4472 140.864H90.2704C90.3639 140.864 90.4575 140.895 90.5199 140.958C90.5822 140.989 90.6446 141.082 90.707 141.207C90.7693 141.332 90.8005 141.488 90.8317 141.706C90.8629 141.893 90.8629 142.143 90.8629 142.454C90.8629 142.735 90.8629 142.985 90.8317 143.172C90.8005 143.359 90.7693 143.546 90.707 143.671C90.6446 143.764 90.5822 143.858 90.5199 143.92C90.4575 143.982 90.3639 144.014 90.2704 144.014H83.2538V148.816H89.2101C89.3037 148.816 89.366 148.847 89.4596 148.91C89.522 148.972 89.5843 149.034 89.6467 149.159C89.6779 149.284 89.7402 149.44 89.7714 149.627C89.7714 149.845 89.8026 150.063 89.8026 150.344C89.8026 150.656 89.7714 150.905 89.7714 151.093C89.7402 151.28 89.6779 151.436 89.6467 151.56C89.5843 151.654 89.522 151.747 89.4596 151.81C89.366 151.841 89.3037 151.872 89.2101 151.872H83.2538V157.423H90.3328C90.4263 157.423 90.5199 157.454 90.5822 157.517C90.6758 157.579 90.7382 157.672 90.7693 157.797C90.8317 157.922 90.8629 158.078 90.8941 158.265C90.9253 158.452 90.9253 158.702 90.9253 159.013Z" fill="white"/>
<path d="M106.854 158.889C106.854 159.2 106.854 159.45 106.823 159.668C106.792 159.886 106.76 160.042 106.698 160.198C106.667 160.323 106.573 160.417 106.511 160.479C106.448 160.541 106.355 160.573 106.23 160.573H97.2179C96.8748 160.573 96.5942 160.479 96.3759 160.261C96.1576 160.074 96.0328 159.762 96.0328 159.294V141.425C96.0328 141.3 96.064 141.238 96.1264 141.144C96.1888 141.051 96.3135 140.989 96.4694 140.957C96.5942 140.895 96.8125 140.864 97.0619 140.833C97.3426 140.801 97.6544 140.77 98.0287 140.77C98.4341 140.77 98.7459 140.801 99.0266 140.833C99.276 140.864 99.4631 140.895 99.6191 140.957C99.775 140.989 99.8685 141.051 99.9621 141.144C100.024 141.238 100.056 141.3 100.056 141.425V157.267H106.23C106.355 157.267 106.448 157.298 106.511 157.36C106.573 157.423 106.667 157.485 106.698 157.641C106.76 157.766 106.792 157.922 106.823 158.14C106.854 158.327 106.854 158.608 106.854 158.889Z" fill="white"/>
<path d="M126.843 159.076C126.968 159.45 127.061 159.731 127.092 159.949C127.123 160.167 127.061 160.323 126.968 160.417C126.843 160.541 126.656 160.604 126.375 160.635C126.094 160.666 125.689 160.666 125.19 160.666C124.691 160.666 124.286 160.666 123.974 160.635C123.693 160.635 123.475 160.604 123.319 160.541C123.163 160.51 123.069 160.448 123.007 160.354C122.945 160.292 122.882 160.167 122.851 160.042L121.541 156.082H114.119L112.872 159.918C112.841 160.074 112.779 160.198 112.716 160.292C112.654 160.385 112.56 160.479 112.404 160.51C112.248 160.573 112.03 160.604 111.781 160.635C111.5 160.666 111.157 160.666 110.72 160.666C110.253 160.666 109.878 160.635 109.629 160.604C109.348 160.572 109.161 160.51 109.068 160.385C108.974 160.292 108.943 160.105 108.974 159.918C109.005 159.699 109.068 159.419 109.192 159.044L115.273 141.581C115.336 141.394 115.398 141.269 115.492 141.144C115.554 141.051 115.679 140.957 115.866 140.895C116.053 140.864 116.302 140.801 116.614 140.801C116.926 140.77 117.331 140.77 117.862 140.77C118.454 140.77 118.922 140.77 119.296 140.801C119.639 140.801 119.92 140.864 120.107 140.895C120.325 140.957 120.45 141.051 120.543 141.144C120.637 141.269 120.699 141.425 120.762 141.612L126.843 159.076ZM117.799 144.637L115.024 152.995H120.606L117.799 144.637Z" fill="white"/>
<path d="M145.793 160.043C145.793 160.167 145.761 160.261 145.73 160.323C145.668 160.417 145.574 160.479 145.418 160.541C145.262 160.573 145.044 160.604 144.763 160.635C144.452 160.666 144.077 160.666 143.547 160.666C143.142 160.666 142.799 160.666 142.549 160.635C142.269 160.604 142.082 160.573 141.926 160.51C141.801 160.479 141.676 160.386 141.614 160.292C141.551 160.23 141.52 160.105 141.458 159.98L139.712 155.583C139.493 155.084 139.275 154.648 139.088 154.273C138.87 153.868 138.651 153.556 138.402 153.307C138.152 153.057 137.872 152.839 137.529 152.714C137.217 152.589 136.843 152.527 136.406 152.527H135.159V160.011C135.159 160.136 135.127 160.23 135.065 160.292C135.003 160.386 134.878 160.448 134.753 160.51C134.597 160.541 134.379 160.573 134.13 160.604C133.88 160.635 133.568 160.666 133.163 160.666C132.757 160.666 132.446 160.635 132.196 160.604C131.947 160.573 131.728 160.541 131.572 160.51C131.416 160.448 131.323 160.386 131.261 160.292C131.198 160.23 131.167 160.136 131.167 160.011V142.143C131.167 141.675 131.292 141.363 131.51 141.176C131.728 140.958 132.009 140.864 132.352 140.864H137.466C137.965 140.864 138.402 140.864 138.745 140.895C139.057 140.926 139.369 140.958 139.649 140.989C140.429 141.082 141.146 141.269 141.77 141.55C142.425 141.831 142.955 142.174 143.391 142.641C143.828 143.078 144.171 143.577 144.42 144.201C144.639 144.793 144.763 145.479 144.763 146.29C144.763 146.945 144.67 147.537 144.514 148.068C144.327 148.629 144.109 149.097 143.766 149.533C143.454 149.97 143.048 150.344 142.581 150.656C142.082 150.968 141.551 151.217 140.928 151.404C141.24 151.56 141.52 151.716 141.77 151.935C142.019 152.122 142.269 152.371 142.487 152.652C142.736 152.964 142.955 153.275 143.142 153.65C143.36 154.024 143.547 154.429 143.734 154.897L145.387 158.795C145.543 159.169 145.668 159.45 145.699 159.637C145.761 159.824 145.793 159.949 145.793 160.043ZM140.616 146.695C140.616 146.041 140.46 145.479 140.179 145.043C139.868 144.606 139.4 144.294 138.745 144.107C138.527 144.045 138.308 144.014 138.028 143.982C137.778 143.951 137.435 143.92 136.967 143.92H135.159V149.533H137.217C137.778 149.533 138.277 149.44 138.714 149.315C139.119 149.19 139.493 148.972 139.774 148.722C140.055 148.473 140.273 148.192 140.398 147.849C140.554 147.506 140.616 147.101 140.616 146.695Z" fill="white"/>
<path d="M154.303 160.011C154.303 160.136 154.272 160.229 154.209 160.292C154.116 160.385 154.022 160.448 153.866 160.51C153.71 160.541 153.523 160.572 153.274 160.604C152.993 160.635 152.681 160.666 152.276 160.666C151.902 160.666 151.59 160.635 151.309 160.604C151.06 160.572 150.841 160.541 150.716 160.51C150.561 160.448 150.436 160.385 150.373 160.292C150.311 160.229 150.28 160.136 150.28 160.011V141.425C150.28 141.3 150.311 141.238 150.373 141.144C150.436 141.051 150.561 140.989 150.716 140.957C150.872 140.895 151.06 140.864 151.34 140.833C151.59 140.801 151.902 140.77 152.276 140.77C152.681 140.77 152.993 140.801 153.274 140.833C153.523 140.864 153.71 140.895 153.866 140.957C154.022 140.989 154.116 141.051 154.209 141.144C154.272 141.238 154.303 141.3 154.303 141.425V160.011Z" fill="white"/>
<path d="M176.311 159.076C176.436 159.45 176.53 159.731 176.561 159.949C176.592 160.167 176.53 160.323 176.436 160.417C176.311 160.541 176.124 160.604 175.844 160.635C175.563 160.666 175.158 160.666 174.659 160.666C174.16 160.666 173.754 160.666 173.442 160.635C173.162 160.635 172.943 160.604 172.788 160.541C172.632 160.51 172.538 160.448 172.476 160.354C172.413 160.292 172.351 160.167 172.32 160.042L171.01 156.082H163.588L162.341 159.918C162.309 160.074 162.247 160.198 162.185 160.292C162.122 160.385 162.029 160.479 161.873 160.51C161.717 160.573 161.499 160.604 161.249 160.635C160.969 160.666 160.626 160.666 160.189 160.666C159.721 160.666 159.347 160.635 159.097 160.604C158.817 160.572 158.63 160.51 158.536 160.385C158.443 160.292 158.411 160.105 158.443 159.918C158.474 159.699 158.536 159.419 158.661 159.044L164.742 141.581C164.804 141.394 164.867 141.269 164.96 141.144C165.023 141.051 165.147 140.957 165.334 140.895C165.522 140.864 165.771 140.801 166.083 140.801C166.395 140.77 166.8 140.77 167.33 140.77C167.923 140.77 168.391 140.77 168.765 140.801C169.108 140.801 169.388 140.864 169.576 140.895C169.794 140.957 169.919 141.051 170.012 141.144C170.106 141.269 170.168 141.425 170.23 141.612L176.311 159.076ZM167.268 144.637L164.492 152.995H170.074L167.268 144.637Z" fill="white"/>
<path d="M203.881 160.043C203.881 160.167 203.85 160.261 203.818 160.323C203.756 160.417 203.662 160.479 203.507 160.541C203.351 160.573 203.132 160.604 202.852 160.635C202.54 160.666 202.166 160.666 201.635 160.666C201.23 160.666 200.887 160.666 200.638 160.635C200.357 160.604 200.17 160.573 200.014 160.51C199.889 160.479 199.764 160.386 199.702 160.292C199.64 160.23 199.608 160.105 199.546 159.98L197.8 155.583C197.581 155.084 197.363 154.648 197.176 154.273C196.958 153.868 196.739 153.556 196.49 153.307C196.24 153.057 195.96 152.839 195.617 152.714C195.305 152.589 194.931 152.527 194.494 152.527H193.247V160.011C193.247 160.136 193.216 160.23 193.153 160.292C193.091 160.386 192.966 160.448 192.841 160.51C192.685 160.541 192.467 160.573 192.218 160.604C191.968 160.635 191.656 160.666 191.251 160.666C190.846 160.666 190.534 160.635 190.284 160.604C190.035 160.573 189.816 160.541 189.661 160.51C189.505 160.448 189.411 160.386 189.349 160.292C189.286 160.23 189.255 160.136 189.255 160.011V142.143C189.255 141.675 189.38 141.363 189.598 141.176C189.816 140.958 190.097 140.864 190.44 140.864H195.554C196.053 140.864 196.49 140.864 196.833 140.895C197.145 140.926 197.457 140.958 197.737 140.989C198.517 141.082 199.234 141.269 199.858 141.55C200.513 141.831 201.043 142.174 201.48 142.641C201.916 143.078 202.259 143.577 202.509 144.201C202.727 144.793 202.852 145.479 202.852 146.29C202.852 146.945 202.758 147.537 202.602 148.068C202.415 148.629 202.197 149.097 201.854 149.533C201.542 149.97 201.136 150.344 200.669 150.656C200.17 150.968 199.64 151.217 199.016 151.404C199.328 151.56 199.608 151.716 199.858 151.935C200.107 152.122 200.357 152.371 200.575 152.652C200.825 152.964 201.043 153.275 201.23 153.65C201.448 154.024 201.635 154.429 201.823 154.897L203.475 158.795C203.631 159.169 203.756 159.45 203.787 159.637C203.85 159.824 203.881 159.949 203.881 160.043ZM198.704 146.695C198.704 146.041 198.548 145.479 198.267 145.043C197.956 144.606 197.488 144.294 196.833 144.107C196.615 144.045 196.396 144.014 196.116 143.982C195.866 143.951 195.523 143.92 195.055 143.92H193.247V149.533H195.305C195.866 149.533 196.365 149.44 196.802 149.315C197.207 149.19 197.581 148.972 197.862 148.722C198.143 148.473 198.361 148.192 198.486 147.849C198.642 147.506 198.704 147.101 198.704 146.695Z" fill="white"/>
<path d="M224.468 159.076C224.593 159.45 224.687 159.731 224.718 159.949C224.749 160.167 224.687 160.323 224.593 160.417C224.468 160.541 224.281 160.604 224.001 160.635C223.72 160.666 223.315 160.666 222.816 160.666C222.317 160.666 221.911 160.666 221.599 160.635C221.319 160.635 221.1 160.604 220.945 160.541C220.789 160.51 220.695 160.448 220.633 160.354C220.57 160.292 220.508 160.167 220.477 160.042L219.167 156.082H211.745L210.498 159.918C210.466 160.074 210.404 160.198 210.342 160.292C210.279 160.385 210.186 160.479 210.03 160.51C209.874 160.573 209.656 160.604 209.406 160.635C209.126 160.666 208.783 160.666 208.346 160.666C207.878 160.666 207.504 160.635 207.254 160.604C206.974 160.572 206.787 160.51 206.693 160.385C206.6 160.292 206.568 160.105 206.6 159.918C206.631 159.699 206.693 159.419 206.818 159.044L212.899 141.581C212.961 141.394 213.024 141.269 213.117 141.144C213.18 141.051 213.304 140.957 213.491 140.895C213.679 140.864 213.928 140.801 214.24 140.801C214.552 140.77 214.957 140.77 215.487 140.77C216.08 140.77 216.548 140.77 216.922 140.801C217.265 140.801 217.545 140.864 217.733 140.895C217.951 140.957 218.076 141.051 218.169 141.144C218.263 141.269 218.325 141.425 218.387 141.612L224.468 159.076ZM215.425 144.637L212.649 152.995H218.231L215.425 144.637Z" fill="white"/>
<path d="M245.165 150.438C245.165 152.246 244.915 153.774 244.447 155.053C243.98 156.363 243.293 157.392 242.42 158.203C241.547 159.013 240.456 159.606 239.208 160.011C237.93 160.386 236.433 160.573 234.686 160.573H229.978C229.635 160.573 229.354 160.479 229.136 160.261C228.917 160.074 228.793 159.762 228.793 159.294V142.143C228.793 141.675 228.917 141.363 229.136 141.176C229.354 140.958 229.635 140.864 229.978 140.864H235.03C236.776 140.864 238.273 141.082 239.489 141.488C240.736 141.893 241.765 142.517 242.576 143.328C243.418 144.107 244.073 145.105 244.51 146.29C244.946 147.506 245.165 148.878 245.165 150.438ZM241.017 150.562C241.017 149.627 240.892 148.754 240.674 147.974C240.456 147.163 240.113 146.477 239.645 145.885C239.146 145.292 238.522 144.824 237.774 144.513C237.025 144.17 236.027 144.014 234.811 144.014H232.784V157.392H234.874C235.965 157.392 236.869 157.267 237.649 156.986C238.397 156.706 239.021 156.269 239.52 155.708C240.019 155.115 240.393 154.398 240.643 153.556C240.892 152.714 241.017 151.716 241.017 150.562Z" fill="white"/>
<path d="M263.687 157.61C263.687 157.859 263.687 158.077 263.655 158.264C263.655 158.452 263.624 158.607 263.593 158.732C263.562 158.857 263.531 158.95 263.468 159.044C263.406 159.138 263.343 159.231 263.219 159.356C263.125 159.481 262.907 159.637 262.564 159.824C262.252 159.98 261.878 160.167 261.41 160.323C260.942 160.51 260.412 160.634 259.82 160.759C259.227 160.853 258.572 160.915 257.886 160.915C256.545 160.915 255.329 160.728 254.238 160.291C253.146 159.886 252.242 159.262 251.462 158.42C250.714 157.61 250.121 156.58 249.716 155.333C249.31 154.086 249.123 152.651 249.123 150.998C249.123 149.346 249.342 147.849 249.778 146.539C250.215 145.26 250.838 144.169 251.649 143.265C252.46 142.391 253.427 141.737 254.549 141.269C255.672 140.801 256.888 140.583 258.26 140.583C258.791 140.583 259.321 140.614 259.82 140.707C260.35 140.801 260.818 140.926 261.223 141.082C261.66 141.206 262.065 141.394 262.408 141.581C262.751 141.768 263 141.955 263.125 142.08C263.25 142.204 263.343 142.329 263.406 142.423C263.468 142.516 263.499 142.641 263.531 142.766C263.562 142.922 263.593 143.077 263.593 143.265C263.624 143.483 263.624 143.701 263.624 143.982C263.624 144.294 263.624 144.543 263.593 144.761C263.562 144.98 263.531 145.167 263.499 145.292C263.437 145.416 263.375 145.51 263.312 145.572C263.219 145.635 263.156 145.666 263.063 145.666C262.907 145.666 262.72 145.572 262.47 145.385C262.252 145.229 261.94 145.011 261.566 144.793C261.192 144.574 260.755 144.387 260.256 144.2C259.726 144.044 259.134 143.951 258.416 143.951C257.637 143.951 256.919 144.107 256.327 144.418C255.703 144.73 255.173 145.198 254.737 145.791C254.331 146.383 253.988 147.1 253.77 147.942C253.552 148.784 253.427 149.751 253.427 150.811C253.427 151.965 253.552 152.963 253.801 153.805C254.019 154.647 254.362 155.364 254.799 155.894C255.267 156.456 255.797 156.861 256.42 157.111C257.044 157.391 257.73 157.516 258.51 157.516C259.227 157.516 259.851 157.454 260.35 157.266C260.88 157.111 261.316 156.923 261.691 156.705C262.065 156.518 262.377 156.331 262.595 156.175C262.845 156.019 263.032 155.926 263.156 155.926C263.281 155.926 263.343 155.957 263.406 155.988C263.468 156.019 263.531 156.113 263.562 156.237C263.593 156.362 263.624 156.518 263.655 156.736C263.687 156.955 263.687 157.266 263.687 157.61Z" fill="white"/>
<path d="M276.072 153.088V160.011C276.072 160.136 276.041 160.229 275.979 160.292C275.917 160.385 275.792 160.448 275.667 160.51C275.511 160.541 275.293 160.572 275.043 160.604C274.763 160.635 274.451 160.666 274.077 160.666C273.671 160.666 273.359 160.635 273.11 160.604C272.829 160.572 272.642 160.541 272.486 160.51C272.33 160.448 272.206 160.385 272.143 160.292C272.081 160.229 272.05 160.136 272.05 160.011V153.088L266.655 142.361C266.468 141.986 266.343 141.706 266.28 141.488C266.249 141.269 266.28 141.113 266.374 141.02C266.499 140.895 266.717 140.833 267.029 140.801C267.341 140.801 267.777 140.77 268.339 140.77C268.806 140.77 269.181 140.801 269.461 140.801C269.742 140.833 269.96 140.864 270.116 140.926C270.303 140.989 270.397 141.051 270.49 141.144C270.553 141.238 270.646 141.363 270.709 141.488L272.892 146.321C273.11 146.789 273.328 147.288 273.515 147.818C273.734 148.317 273.952 148.878 274.17 149.44H274.201C274.389 148.878 274.576 148.348 274.794 147.849C274.981 147.319 275.199 146.82 275.386 146.352L277.538 141.55C277.601 141.394 277.663 141.269 277.725 141.176C277.819 141.082 277.912 140.989 278.068 140.926C278.224 140.864 278.443 140.833 278.692 140.801C278.973 140.801 279.316 140.77 279.752 140.77C280.314 140.77 280.781 140.801 281.093 140.801C281.405 140.833 281.623 140.895 281.748 141.02C281.873 141.113 281.904 141.269 281.842 141.488C281.779 141.706 281.655 141.986 281.467 142.361L276.072 153.088Z" fill="white"/>
<path d="M307.942 146.851C307.942 147.974 307.786 148.941 307.443 149.783C307.1 150.656 306.601 151.373 305.946 151.935C305.26 152.527 304.449 152.964 303.513 153.275C302.547 153.587 301.424 153.743 300.114 153.743H298.461V160.011C298.461 160.136 298.43 160.23 298.368 160.292C298.305 160.386 298.181 160.448 298.056 160.51C297.9 160.541 297.682 160.573 297.432 160.604C297.183 160.635 296.871 160.666 296.466 160.666C296.06 160.666 295.748 160.635 295.499 160.604C295.249 160.573 295.031 160.541 294.875 160.51C294.719 160.448 294.626 160.386 294.563 160.292C294.501 160.23 294.47 160.136 294.47 160.011V142.298C294.47 141.831 294.594 141.456 294.844 141.238C295.093 140.989 295.405 140.864 295.811 140.864H300.457C300.925 140.864 301.362 140.895 301.798 140.926C302.204 140.958 302.734 141.02 303.326 141.145C303.887 141.269 304.511 141.488 305.104 141.799C305.696 142.111 306.226 142.517 306.632 142.985C307.068 143.483 307.411 144.045 307.63 144.668C307.848 145.323 307.942 146.041 307.942 146.851ZM303.763 147.132C303.763 146.446 303.638 145.885 303.389 145.448C303.17 144.98 302.858 144.668 302.515 144.45C302.141 144.232 301.767 144.107 301.393 144.045C300.987 143.982 300.582 143.951 300.177 143.951H298.461V150.656H300.27C300.894 150.656 301.455 150.562 301.86 150.375C302.297 150.219 302.671 149.97 302.921 149.658C303.201 149.346 303.42 148.972 303.544 148.567C303.7 148.13 303.763 147.662 303.763 147.132Z" fill="white"/>
<path d="M327.271 160.043C327.271 160.167 327.24 160.261 327.209 160.323C327.147 160.417 327.053 160.479 326.897 160.541C326.741 160.573 326.523 160.604 326.242 160.635C325.93 160.666 325.556 160.666 325.026 160.666C324.621 160.666 324.278 160.666 324.028 160.635C323.747 160.604 323.56 160.573 323.404 160.51C323.28 160.479 323.155 160.386 323.092 160.292C323.03 160.23 322.999 160.105 322.937 159.98L321.19 155.583C320.972 155.084 320.754 154.648 320.567 154.273C320.348 153.868 320.13 153.556 319.88 153.307C319.631 153.057 319.35 152.839 319.007 152.714C318.695 152.589 318.321 152.527 317.885 152.527H316.637V160.011C316.637 160.136 316.606 160.23 316.544 160.292C316.481 160.386 316.357 160.448 316.232 160.51C316.076 160.541 315.858 160.573 315.608 160.604C315.359 160.635 315.047 160.666 314.641 160.666C314.236 160.666 313.924 160.635 313.675 160.604C313.425 160.573 313.207 160.541 313.051 160.51C312.895 160.448 312.802 160.386 312.739 160.292C312.677 160.23 312.646 160.136 312.646 160.011V142.143C312.646 141.675 312.77 141.363 312.989 141.176C313.207 140.958 313.488 140.864 313.831 140.864H318.945C319.444 140.864 319.88 140.864 320.224 140.895C320.535 140.926 320.847 140.958 321.128 140.989C321.907 141.082 322.625 141.269 323.248 141.55C323.903 141.831 324.433 142.174 324.87 142.641C325.307 143.078 325.65 143.577 325.899 144.201C326.117 144.793 326.242 145.479 326.242 146.29C326.242 146.945 326.149 147.537 325.993 148.068C325.806 148.629 325.587 149.097 325.244 149.533C324.932 149.97 324.527 150.344 324.059 150.656C323.56 150.968 323.03 151.217 322.406 151.404C322.718 151.56 322.999 151.716 323.248 151.935C323.498 152.122 323.747 152.371 323.966 152.652C324.215 152.964 324.433 153.275 324.621 153.65C324.839 154.024 325.026 154.429 325.213 154.897L326.866 158.795C327.022 159.169 327.147 159.45 327.178 159.637C327.24 159.824 327.271 159.949 327.271 160.043ZM322.095 146.695C322.095 146.041 321.939 145.479 321.658 145.043C321.346 144.606 320.878 144.294 320.224 144.107C320.005 144.045 319.787 144.014 319.506 143.982C319.257 143.951 318.914 143.92 318.446 143.92H316.637V149.533H318.695C319.257 149.533 319.756 149.44 320.192 149.315C320.598 149.19 320.972 148.972 321.253 148.722C321.533 148.473 321.752 148.192 321.876 147.849C322.032 147.506 322.095 147.101 322.095 146.695Z" fill="white"/>
<path d="M347.859 159.076C347.984 159.45 348.077 159.731 348.108 159.949C348.14 160.167 348.077 160.323 347.984 160.417C347.859 160.541 347.672 160.604 347.391 160.635C347.11 160.666 346.705 160.666 346.206 160.666C345.707 160.666 345.302 160.666 344.99 160.635C344.709 160.635 344.491 160.604 344.335 160.541C344.179 160.51 344.086 160.448 344.023 160.354C343.961 160.292 343.898 160.167 343.867 160.042L342.558 156.082H335.136L333.888 159.918C333.857 160.074 333.795 160.198 333.732 160.292C333.67 160.385 333.576 160.479 333.42 160.51C333.264 160.573 333.046 160.604 332.797 160.635C332.516 160.666 332.173 160.666 331.736 160.666C331.269 160.666 330.894 160.635 330.645 160.604C330.364 160.572 330.177 160.51 330.084 160.385C329.99 160.292 329.959 160.105 329.99 159.918C330.021 159.699 330.084 159.419 330.208 159.044L336.289 141.581C336.352 141.394 336.414 141.269 336.508 141.144C336.57 141.051 336.695 140.957 336.882 140.895C337.069 140.864 337.318 140.801 337.63 140.801C337.942 140.77 338.348 140.77 338.878 140.77C339.47 140.77 339.938 140.77 340.312 140.801C340.655 140.801 340.936 140.864 341.123 140.895C341.341 140.957 341.466 141.051 341.56 141.144C341.653 141.269 341.716 141.425 341.778 141.612L347.859 159.076ZM338.815 144.637L336.04 152.995H341.622L338.815 144.637Z" fill="white"/>
<path d="M372.919 159.543C372.857 159.793 372.763 159.98 372.669 160.136C372.545 160.292 372.389 160.385 372.17 160.479C371.983 160.541 371.703 160.604 371.36 160.635C371.017 160.666 370.611 160.666 370.081 160.666C369.52 160.666 369.052 160.666 368.678 160.635C368.335 160.604 368.054 160.541 367.867 160.479C367.649 160.385 367.524 160.292 367.43 160.136C367.337 159.98 367.243 159.793 367.212 159.543L364.062 147.07H364.031L361.038 159.543C360.975 159.793 360.913 159.98 360.819 160.136C360.726 160.261 360.601 160.385 360.383 160.479C360.196 160.541 359.915 160.604 359.572 160.635C359.229 160.666 358.792 160.666 358.231 160.666C357.638 160.666 357.171 160.666 356.828 160.635C356.485 160.604 356.204 160.541 355.986 160.479C355.798 160.385 355.643 160.292 355.549 160.136C355.455 159.98 355.393 159.793 355.331 159.543L350.84 142.361C350.747 141.986 350.715 141.706 350.684 141.488C350.684 141.3 350.747 141.144 350.871 141.02C350.996 140.895 351.214 140.833 351.495 140.801C351.776 140.801 352.181 140.77 352.711 140.77C353.179 140.77 353.553 140.77 353.834 140.801C354.115 140.801 354.333 140.864 354.489 140.895C354.613 140.957 354.707 141.051 354.769 141.144C354.801 141.269 354.863 141.394 354.894 141.612L358.356 156.674L361.942 141.706C362.004 141.519 362.035 141.363 362.098 141.238C362.191 141.113 362.285 141.02 362.441 140.957C362.597 140.895 362.815 140.833 363.096 140.801C363.376 140.801 363.719 140.77 364.187 140.77C364.686 140.77 365.06 140.801 365.341 140.801C365.653 140.833 365.871 140.864 366.027 140.926C366.183 140.989 366.308 141.082 366.37 141.207C366.432 141.332 366.495 141.519 366.526 141.706L370.237 156.674H370.268L373.73 141.643C373.761 141.488 373.823 141.332 373.854 141.238C373.917 141.113 374.01 141.02 374.135 140.957C374.291 140.895 374.509 140.833 374.759 140.801C375.008 140.801 375.382 140.77 375.881 140.77C376.318 140.77 376.661 140.801 376.911 140.801C377.16 140.833 377.347 140.895 377.441 141.02C377.565 141.144 377.628 141.3 377.597 141.519C377.597 141.737 377.534 142.018 377.441 142.392L372.919 159.543Z" fill="white"/>
<path d="M398.317 159.185C398.317 159.434 398.286 159.621 398.193 159.808C398.099 159.996 398.006 160.151 397.85 160.276C397.725 160.401 397.569 160.495 397.382 160.526C397.195 160.588 397.008 160.619 396.821 160.619H395.105C394.731 160.619 394.451 160.588 394.17 160.526C393.92 160.432 393.671 160.307 393.453 160.12C393.234 159.933 393.047 159.684 392.829 159.372C392.642 159.029 392.392 158.623 392.143 158.124L387.247 148.894C386.966 148.364 386.654 147.771 386.374 147.147C386.093 146.493 385.812 145.869 385.594 145.276H385.563C385.594 146.025 385.625 146.742 385.657 147.459C385.657 148.208 385.688 148.956 385.688 149.705V160.027C385.688 160.12 385.657 160.214 385.594 160.307C385.532 160.37 385.438 160.463 385.314 160.495C385.158 160.557 384.97 160.588 384.752 160.619C384.503 160.65 384.222 160.682 383.848 160.682C383.505 160.682 383.193 160.65 382.975 160.619C382.725 160.588 382.538 160.557 382.413 160.495C382.289 160.463 382.195 160.37 382.133 160.307C382.101 160.214 382.07 160.12 382.07 160.027V142.314C382.07 141.846 382.195 141.472 382.476 141.254C382.756 141.004 383.099 140.879 383.505 140.879H385.657C386.031 140.879 386.374 140.911 386.623 140.973C386.904 141.035 387.122 141.16 387.341 141.316C387.559 141.472 387.746 141.659 387.933 141.94C388.12 142.22 388.307 142.532 388.494 142.938L392.33 150.141C392.548 150.578 392.767 151.014 392.985 151.42C393.203 151.856 393.422 152.262 393.609 152.698C393.827 153.104 394.014 153.54 394.201 153.946C394.419 154.351 394.607 154.757 394.794 155.162C394.762 154.445 394.731 153.696 394.731 152.917C394.7 152.168 394.7 151.42 394.7 150.734V141.472C394.7 141.378 394.731 141.285 394.794 141.191C394.856 141.129 394.95 141.066 395.105 141.004C395.23 140.942 395.417 140.879 395.667 140.848C395.885 140.848 396.197 140.817 396.571 140.817C396.914 140.817 397.195 140.848 397.444 140.848C397.663 140.879 397.85 140.942 397.974 141.004C398.099 141.066 398.193 141.129 398.224 141.191C398.286 141.285 398.317 141.378 398.317 141.472V159.185Z" fill="white"/>
<path d="M415.751 159.013C415.751 159.294 415.751 159.544 415.72 159.731C415.689 159.949 415.657 160.105 415.595 160.23C415.564 160.354 415.501 160.448 415.408 160.479C415.346 160.541 415.252 160.573 415.158 160.573H405.273C404.93 160.573 404.649 160.479 404.431 160.261C404.213 160.074 404.088 159.762 404.088 159.294V142.143C404.088 141.675 404.213 141.363 404.431 141.176C404.649 140.958 404.93 140.864 405.273 140.864H415.096C415.19 140.864 415.283 140.895 415.346 140.958C415.408 140.989 415.47 141.082 415.533 141.207C415.595 141.332 415.626 141.488 415.657 141.706C415.689 141.893 415.689 142.143 415.689 142.454C415.689 142.735 415.689 142.985 415.657 143.172C415.626 143.359 415.595 143.546 415.533 143.671C415.47 143.764 415.408 143.858 415.346 143.92C415.283 143.982 415.19 144.014 415.096 144.014H408.08V148.816H414.036C414.129 148.816 414.192 148.847 414.285 148.91C414.348 148.972 414.41 149.034 414.472 149.159C414.504 149.284 414.566 149.44 414.597 149.627C414.597 149.845 414.628 150.063 414.628 150.344C414.628 150.656 414.597 150.905 414.597 151.093C414.566 151.28 414.504 151.436 414.472 151.56C414.41 151.654 414.348 151.747 414.285 151.81C414.192 151.841 414.129 151.872 414.036 151.872H408.08V157.423H415.158C415.252 157.423 415.346 157.454 415.408 157.517C415.501 157.579 415.564 157.672 415.595 157.797C415.657 157.922 415.689 158.078 415.72 158.265C415.751 158.452 415.751 158.702 415.751 159.013Z" fill="white"/>
<path d="M436.668 143.935C436.668 144.247 436.636 144.496 436.605 144.715C436.605 144.933 436.574 145.089 436.512 145.214C436.48 145.338 436.418 145.432 436.356 145.494C436.293 145.525 436.2 145.557 436.106 145.557C435.982 145.557 435.763 145.463 435.483 145.276C435.171 145.089 434.797 144.902 434.298 144.684C433.799 144.465 433.237 144.278 432.551 144.091C431.865 143.904 431.086 143.81 430.212 143.81C429.246 143.81 428.372 143.997 427.624 144.309C426.844 144.652 426.19 145.12 425.628 145.713C425.098 146.336 424.662 147.054 424.381 147.896C424.069 148.738 423.913 149.673 423.913 150.702C423.913 151.825 424.069 152.823 424.381 153.696C424.662 154.538 425.098 155.255 425.628 155.848C426.158 156.409 426.813 156.845 427.562 157.157C428.341 157.438 429.152 157.594 430.088 157.594C430.524 157.594 430.961 157.532 431.397 157.438C431.834 157.344 432.239 157.189 432.614 156.97V152.417H428.903C428.716 152.417 428.56 152.293 428.466 152.074C428.372 151.825 428.31 151.451 428.31 150.889C428.31 150.609 428.341 150.39 428.341 150.203C428.372 149.985 428.404 149.829 428.466 149.735C428.528 149.611 428.591 149.517 428.653 149.455C428.716 149.424 428.809 149.392 428.903 149.392H435.545C435.701 149.392 435.857 149.424 435.982 149.455C436.106 149.517 436.231 149.611 436.325 149.704C436.418 149.829 436.48 149.954 436.543 150.11C436.574 150.266 436.605 150.453 436.605 150.671V158.498C436.605 158.81 436.574 159.06 436.449 159.309C436.356 159.527 436.137 159.714 435.794 159.839C435.483 159.964 435.046 160.12 434.578 160.245C434.079 160.401 433.58 160.525 433.05 160.619C432.52 160.712 432.021 160.806 431.46 160.837C430.93 160.899 430.399 160.931 429.869 160.931C428.279 160.931 426.876 160.681 425.628 160.245C424.412 159.808 423.352 159.153 422.479 158.28C421.605 157.438 420.951 156.378 420.514 155.13C420.046 153.914 419.828 152.511 419.828 150.952C419.828 149.33 420.046 147.896 420.545 146.617C421.044 145.307 421.73 144.216 422.603 143.343C423.508 142.438 424.599 141.752 425.847 141.253C427.125 140.785 428.528 140.536 430.088 140.536C430.93 140.536 431.709 140.598 432.395 140.723C433.113 140.848 433.736 140.973 434.235 141.16C434.765 141.316 435.202 141.503 435.545 141.69C435.888 141.877 436.137 142.064 436.262 142.189C436.418 142.345 436.512 142.532 436.574 142.781C436.636 143.062 436.668 143.436 436.668 143.935Z" fill="white"/>
<path d="M460.025 150.515C460.025 152.137 459.838 153.602 459.433 154.881C459.027 156.191 458.404 157.282 457.624 158.186C456.813 159.06 455.815 159.746 454.63 160.245C453.445 160.712 452.073 160.931 450.545 160.931C448.986 160.931 447.645 160.744 446.522 160.338C445.368 159.933 444.433 159.309 443.653 158.498C442.905 157.687 442.343 156.627 441.938 155.38C441.564 154.101 441.377 152.604 441.377 150.858C441.377 149.268 441.595 147.833 442 146.555C442.406 145.276 442.998 144.185 443.809 143.311C444.589 142.407 445.587 141.721 446.772 141.253C447.957 140.785 449.329 140.536 450.888 140.536C452.385 140.536 453.695 140.723 454.848 141.128C456.002 141.534 456.938 142.126 457.717 142.968C458.466 143.779 459.058 144.808 459.433 146.056C459.838 147.334 460.025 148.8 460.025 150.515ZM455.815 150.733C455.815 149.673 455.753 148.738 455.597 147.896C455.41 147.054 455.16 146.336 454.755 145.713C454.35 145.12 453.851 144.652 453.196 144.309C452.541 143.997 451.73 143.81 450.763 143.81C449.765 143.81 448.955 143.997 448.3 144.372C447.645 144.746 447.083 145.245 446.678 145.869C446.273 146.492 445.992 147.209 445.836 148.02C445.68 148.862 445.587 149.735 445.587 150.671C445.587 151.731 445.649 152.698 445.836 153.571C445.992 154.413 446.273 155.162 446.647 155.754C447.021 156.378 447.551 156.845 448.206 157.157C448.861 157.469 449.672 157.625 450.639 157.625C451.636 157.625 452.447 157.438 453.133 157.095C453.788 156.721 454.318 156.222 454.724 155.598C455.129 154.974 455.41 154.226 455.566 153.384C455.753 152.542 455.815 151.669 455.815 150.733Z" fill="white"/>
<path d="M134.14 198.8C134.234 199.018 134.265 199.205 134.265 199.361C134.265 199.486 134.234 199.579 134.171 199.673C134.078 199.735 133.953 199.766 133.766 199.798C133.579 199.829 133.329 199.829 133.018 199.829C132.675 199.829 132.425 199.829 132.238 199.798C132.051 199.798 131.926 199.766 131.833 199.735C131.739 199.704 131.645 199.642 131.614 199.579C131.552 199.517 131.521 199.455 131.49 199.361L129.774 194.559H121.604L119.982 199.299C119.951 199.392 119.92 199.455 119.858 199.517C119.795 199.61 119.733 199.642 119.639 199.704C119.546 199.735 119.421 199.766 119.234 199.798C119.047 199.829 118.829 199.829 118.548 199.829C118.236 199.829 117.987 199.829 117.799 199.798C117.612 199.766 117.488 199.704 117.425 199.642C117.332 199.579 117.301 199.455 117.301 199.33C117.301 199.205 117.363 199.018 117.425 198.8L124.036 180.494C124.099 180.37 124.13 180.276 124.224 180.214C124.286 180.151 124.379 180.089 124.504 180.058C124.629 179.995 124.785 179.964 124.972 179.964C125.19 179.933 125.44 179.933 125.752 179.933C126.063 179.933 126.344 179.933 126.531 179.964C126.749 179.964 126.937 179.995 127.061 180.058C127.186 180.089 127.311 180.151 127.373 180.214C127.436 180.307 127.498 180.401 127.529 180.494L134.14 198.8ZM125.658 182.646L122.259 192.469H129.12L125.658 182.646Z" fill="white"/>
<path d="M153.943 198.675C153.943 198.893 153.881 199.049 153.818 199.205C153.756 199.33 153.662 199.455 153.569 199.548C153.475 199.642 153.35 199.704 153.226 199.766C153.07 199.798 152.945 199.798 152.82 199.798H151.978C151.729 199.798 151.479 199.798 151.292 199.735C151.074 199.673 150.887 199.579 150.731 199.423C150.544 199.268 150.357 199.08 150.201 198.831C150.014 198.581 149.827 198.238 149.608 197.833L143.402 186.638C143.059 186.076 142.748 185.453 142.405 184.829C142.093 184.174 141.781 183.582 141.5 182.958H141.469C141.469 183.706 141.5 184.455 141.5 185.203C141.5 185.983 141.531 186.731 141.531 187.48V199.361C141.531 199.455 141.5 199.517 141.469 199.579C141.407 199.642 141.344 199.704 141.251 199.735C141.157 199.766 141.032 199.798 140.877 199.829C140.721 199.86 140.502 199.86 140.284 199.86C140.035 199.86 139.816 199.86 139.66 199.829C139.504 199.798 139.38 199.766 139.286 199.735C139.193 199.704 139.13 199.642 139.099 199.579C139.068 199.517 139.037 199.455 139.037 199.361V181.18C139.037 180.775 139.161 180.494 139.38 180.307C139.598 180.151 139.847 180.058 140.097 180.058H141.344C141.656 180.058 141.906 180.089 142.093 180.151C142.28 180.183 142.467 180.276 142.623 180.401C142.779 180.494 142.935 180.681 143.091 180.869C143.215 181.087 143.371 181.336 143.558 181.648L148.33 190.318C148.641 190.848 148.922 191.347 149.203 191.846C149.452 192.345 149.733 192.843 149.982 193.342C150.232 193.841 150.481 194.309 150.731 194.777C150.98 195.245 151.23 195.712 151.479 196.211C151.479 195.401 151.448 194.559 151.448 193.685C151.448 192.843 151.448 192.001 151.448 191.191V180.494C151.448 180.432 151.479 180.37 151.51 180.307C151.542 180.245 151.604 180.183 151.698 180.151C151.822 180.089 151.947 180.058 152.103 180.058C152.259 180.027 152.446 180.027 152.695 180.027C152.945 180.027 153.132 180.027 153.288 180.058C153.444 180.058 153.569 180.089 153.662 180.151C153.756 180.183 153.818 180.245 153.881 180.307C153.912 180.37 153.943 180.432 153.943 180.494V198.675Z" fill="white"/>
<path d="M175.586 198.675C175.586 198.893 175.523 199.049 175.461 199.205C175.398 199.33 175.305 199.455 175.211 199.548C175.118 199.642 174.993 199.704 174.868 199.766C174.712 199.798 174.588 199.798 174.463 199.798H173.621C173.371 199.798 173.122 199.798 172.935 199.735C172.717 199.673 172.529 199.579 172.374 199.423C172.186 199.268 171.999 199.08 171.843 198.831C171.656 198.581 171.469 198.238 171.251 197.833L165.045 186.638C164.702 186.076 164.39 185.453 164.047 184.829C163.735 184.174 163.424 183.582 163.143 182.958H163.112C163.112 183.706 163.143 184.455 163.143 185.203C163.143 185.983 163.174 186.731 163.174 187.48V199.361C163.174 199.455 163.143 199.517 163.112 199.579C163.049 199.642 162.987 199.704 162.893 199.735C162.8 199.766 162.675 199.798 162.519 199.829C162.363 199.86 162.145 199.86 161.927 199.86C161.677 199.86 161.459 199.86 161.303 199.829C161.147 199.798 161.022 199.766 160.929 199.735C160.835 199.704 160.773 199.642 160.742 199.579C160.711 199.517 160.679 199.455 160.679 199.361V181.18C160.679 180.775 160.804 180.494 161.022 180.307C161.241 180.151 161.49 180.058 161.74 180.058H162.987C163.299 180.058 163.548 180.089 163.735 180.151C163.923 180.183 164.11 180.276 164.266 180.401C164.421 180.494 164.577 180.681 164.733 180.869C164.858 181.087 165.014 181.336 165.201 181.648L169.972 190.318C170.284 190.848 170.565 191.347 170.846 191.846C171.095 192.345 171.376 192.843 171.625 193.342C171.875 193.841 172.124 194.309 172.374 194.777C172.623 195.245 172.873 195.712 173.122 196.211C173.122 195.401 173.091 194.559 173.091 193.685C173.091 192.843 173.091 192.001 173.091 191.191V180.494C173.091 180.432 173.122 180.37 173.153 180.307C173.184 180.245 173.247 180.183 173.34 180.151C173.465 180.089 173.59 180.058 173.746 180.058C173.902 180.027 174.089 180.027 174.338 180.027C174.588 180.027 174.775 180.027 174.931 180.058C175.087 180.058 175.211 180.089 175.305 180.151C175.398 180.183 175.461 180.245 175.523 180.307C175.554 180.37 175.586 180.432 175.586 180.494V198.675Z" fill="white"/>
<path d="M197.1 198.8C197.194 199.018 197.225 199.205 197.225 199.361C197.225 199.486 197.194 199.579 197.132 199.673C197.038 199.735 196.913 199.766 196.726 199.798C196.539 199.829 196.29 199.829 195.978 199.829C195.635 199.829 195.385 199.829 195.198 199.798C195.011 199.798 194.886 199.766 194.793 199.735C194.699 199.704 194.606 199.642 194.574 199.579C194.512 199.517 194.481 199.455 194.45 199.361L192.734 194.559H184.564L182.942 199.299C182.911 199.392 182.88 199.455 182.818 199.517C182.755 199.61 182.693 199.642 182.599 199.704C182.506 199.735 182.381 199.766 182.194 199.798C182.007 199.829 181.789 199.829 181.508 199.829C181.196 199.829 180.947 199.829 180.76 199.798C180.572 199.766 180.448 199.704 180.385 199.642C180.292 199.579 180.261 199.455 180.261 199.33C180.261 199.205 180.323 199.018 180.385 198.8L186.997 180.494C187.059 180.37 187.09 180.276 187.184 180.214C187.246 180.151 187.34 180.089 187.464 180.058C187.589 179.995 187.745 179.964 187.932 179.964C188.15 179.933 188.4 179.933 188.712 179.933C189.024 179.933 189.304 179.933 189.491 179.964C189.71 179.964 189.897 179.995 190.021 180.058C190.146 180.089 190.271 180.151 190.333 180.214C190.396 180.307 190.458 180.401 190.489 180.494L197.1 198.8ZM188.618 182.646L185.219 192.469H192.08L188.618 182.646Z" fill="white"/>
<path d="M232.04 199.33C232.04 199.423 232.009 199.486 231.978 199.548C231.947 199.611 231.853 199.673 231.76 199.704C231.666 199.735 231.541 199.767 231.385 199.798C231.229 199.829 231.011 199.829 230.762 199.829C230.512 199.829 230.325 199.829 230.169 199.798C229.982 199.767 229.857 199.735 229.764 199.704C229.67 199.673 229.608 199.611 229.545 199.548C229.514 199.486 229.483 199.423 229.483 199.33V182.178H229.452L222.435 199.423C222.404 199.486 222.373 199.548 222.311 199.611C222.248 199.642 222.186 199.704 222.061 199.735C221.968 199.767 221.843 199.798 221.687 199.798C221.531 199.829 221.375 199.829 221.157 199.829C220.97 199.829 220.783 199.829 220.627 199.798C220.471 199.767 220.346 199.735 220.252 199.704C220.128 199.673 220.065 199.642 220.003 199.579C219.941 199.517 219.909 199.486 219.878 199.423L213.173 182.178V199.33C213.173 199.423 213.142 199.486 213.111 199.548C213.049 199.611 212.986 199.673 212.893 199.704C212.768 199.735 212.643 199.767 212.487 199.798C212.331 199.829 212.113 199.829 211.864 199.829C211.614 199.829 211.427 199.829 211.24 199.798C211.084 199.767 210.959 199.735 210.866 199.704C210.772 199.673 210.71 199.611 210.679 199.548C210.648 199.486 210.616 199.423 210.616 199.33V181.212C210.616 180.806 210.741 180.494 210.959 180.307C211.178 180.12 211.427 180.027 211.708 180.027H213.267C213.61 180.027 213.891 180.058 214.14 180.12C214.39 180.183 214.577 180.276 214.764 180.401C214.951 180.557 215.107 180.713 215.232 180.9C215.356 181.118 215.45 181.368 215.544 181.617L221.25 195.9H221.344L227.269 181.679C227.394 181.368 227.518 181.118 227.643 180.9C227.768 180.682 227.924 180.526 228.08 180.401C228.236 180.276 228.392 180.183 228.61 180.12C228.797 180.058 229.015 180.027 229.265 180.027H230.918C231.073 180.027 231.229 180.058 231.354 180.089C231.51 180.151 231.604 180.214 231.697 180.307C231.822 180.401 231.884 180.526 231.947 180.682C232.009 180.837 232.04 180.993 232.04 181.212V199.33Z" fill="white"/>
<path d="M241.437 199.33C241.437 199.423 241.406 199.486 241.374 199.548C241.343 199.61 241.25 199.673 241.156 199.704C241.063 199.735 240.938 199.766 240.751 199.798C240.595 199.829 240.376 199.829 240.127 199.829C239.878 199.829 239.659 199.829 239.503 199.798C239.316 199.766 239.191 199.735 239.098 199.704C239.004 199.673 238.911 199.61 238.88 199.548C238.848 199.486 238.817 199.423 238.817 199.33V180.432C238.817 180.338 238.848 180.276 238.88 180.214C238.942 180.151 239.004 180.12 239.129 180.058C239.223 180.027 239.347 179.995 239.535 179.964C239.69 179.964 239.878 179.933 240.127 179.933C240.376 179.933 240.595 179.964 240.751 179.964C240.938 179.995 241.063 180.027 241.156 180.058C241.25 180.12 241.343 180.151 241.374 180.214C241.406 180.276 241.437 180.338 241.437 180.432V199.33Z" fill="white"/>
<path d="M258.415 198.581C258.415 198.8 258.384 198.956 258.384 199.112C258.353 199.236 258.322 199.361 258.259 199.455C258.228 199.548 258.166 199.61 258.103 199.673C258.041 199.704 257.947 199.735 257.885 199.735H249.153C248.935 199.735 248.717 199.642 248.498 199.486C248.28 199.33 248.187 199.08 248.187 198.675V180.432C248.187 180.338 248.218 180.276 248.249 180.214C248.28 180.151 248.374 180.12 248.467 180.058C248.561 180.027 248.685 179.995 248.873 179.964C249.029 179.964 249.247 179.933 249.496 179.933C249.746 179.933 249.964 179.964 250.12 179.964C250.307 179.995 250.432 180.027 250.525 180.058C250.619 180.12 250.712 180.151 250.744 180.214C250.775 180.276 250.806 180.338 250.806 180.432V197.459H257.885C257.947 197.459 258.041 197.49 258.103 197.521C258.166 197.583 258.228 197.646 258.259 197.739C258.322 197.833 258.353 197.926 258.384 198.082C258.384 198.207 258.415 198.394 258.415 198.581Z" fill="white"/>
<path d="M276.085 196.975C276.085 197.131 276.085 197.256 276.054 197.38C276.054 197.505 276.023 197.63 276.023 197.724C275.992 197.786 275.96 197.879 275.898 197.942C275.867 198.035 275.804 198.098 275.711 198.222C275.586 198.316 275.399 198.472 275.056 198.69C274.744 198.877 274.339 199.096 273.84 199.283C273.372 199.47 272.811 199.657 272.187 199.782C271.563 199.938 270.877 200 270.129 200C268.85 200 267.696 199.782 266.667 199.345C265.638 198.94 264.765 198.285 264.048 197.474C263.331 196.632 262.769 195.603 262.364 194.387C261.99 193.171 261.771 191.736 261.771 190.146C261.771 188.524 261.99 187.058 262.426 185.78C262.832 184.501 263.424 183.41 264.204 182.537C264.952 181.663 265.857 180.977 266.917 180.51C267.977 180.042 269.162 179.792 270.441 179.792C271.002 179.792 271.563 179.855 272.093 179.948C272.655 180.073 273.154 180.198 273.59 180.354C274.058 180.541 274.464 180.728 274.807 180.915C275.181 181.133 275.43 181.32 275.555 181.445C275.68 181.601 275.773 181.695 275.836 181.757C275.867 181.851 275.898 181.913 275.929 182.006C275.96 182.1 275.96 182.225 275.992 182.349C275.992 182.505 275.992 182.661 275.992 182.848C275.992 183.036 275.992 183.223 275.96 183.347C275.96 183.503 275.929 183.628 275.898 183.722C275.836 183.815 275.804 183.878 275.742 183.909C275.68 183.971 275.617 184.002 275.524 184.002C275.399 184.002 275.181 183.878 274.931 183.69C274.682 183.503 274.37 183.285 273.965 183.036C273.559 182.786 273.06 182.568 272.499 182.381C271.906 182.194 271.22 182.1 270.441 182.1C269.568 182.1 268.757 182.256 268.039 182.599C267.322 182.973 266.73 183.472 266.2 184.158C265.701 184.844 265.326 185.655 265.046 186.653C264.765 187.62 264.609 188.742 264.609 189.99C264.609 191.268 264.734 192.36 265.015 193.326C265.295 194.262 265.669 195.073 266.168 195.728C266.667 196.383 267.291 196.85 268.039 197.193C268.757 197.505 269.599 197.692 270.503 197.692C271.283 197.692 271.969 197.599 272.561 197.38C273.154 197.193 273.622 196.975 274.058 196.757C274.464 196.507 274.807 196.289 275.056 196.102C275.337 195.915 275.524 195.821 275.68 195.821C275.742 195.821 275.804 195.821 275.867 195.852C275.929 195.884 275.96 195.946 275.992 196.04C276.023 196.102 276.054 196.227 276.054 196.383C276.085 196.538 276.085 196.726 276.085 196.975Z" fill="white"/>
<path d="M295.85 198.8C295.944 199.018 295.975 199.205 295.975 199.361C295.975 199.486 295.944 199.579 295.881 199.673C295.788 199.735 295.663 199.766 295.476 199.798C295.289 199.829 295.039 199.829 294.728 199.829C294.385 199.829 294.135 199.829 293.948 199.798C293.761 199.798 293.636 199.766 293.543 199.735C293.449 199.704 293.355 199.642 293.324 199.579C293.262 199.517 293.231 199.455 293.2 199.361L291.484 194.559H283.314L281.692 199.299C281.661 199.392 281.63 199.455 281.568 199.517C281.505 199.61 281.443 199.642 281.349 199.704C281.256 199.735 281.131 199.766 280.944 199.798C280.757 199.829 280.539 199.829 280.258 199.829C279.946 199.829 279.697 199.829 279.509 199.798C279.322 199.766 279.198 199.704 279.135 199.642C279.042 199.579 279.01 199.455 279.01 199.33C279.01 199.205 279.073 199.018 279.135 198.8L285.746 180.494C285.809 180.37 285.84 180.276 285.933 180.214C285.996 180.151 286.089 180.089 286.214 180.058C286.339 179.995 286.495 179.964 286.682 179.964C286.9 179.933 287.15 179.933 287.462 179.933C287.773 179.933 288.054 179.933 288.241 179.964C288.459 179.964 288.647 179.995 288.771 180.058C288.896 180.089 289.021 180.151 289.083 180.214C289.146 180.307 289.208 180.401 289.239 180.494L295.85 198.8ZM287.368 182.646L283.969 192.469H290.829L287.368 182.646Z" fill="white"/>
<path d="M313.782 199.33C313.782 199.423 313.782 199.486 313.751 199.548C313.72 199.611 313.657 199.673 313.564 199.704C313.439 199.735 313.314 199.767 313.127 199.798C312.94 199.829 312.69 199.829 312.379 199.829C312.129 199.829 311.911 199.829 311.755 199.798C311.568 199.767 311.443 199.735 311.35 199.704C311.256 199.642 311.162 199.579 311.1 199.517C311.038 199.423 311.006 199.33 310.975 199.205L309.135 194.559C308.948 194.029 308.73 193.561 308.481 193.093C308.262 192.656 307.982 192.282 307.67 191.97C307.358 191.627 306.984 191.409 306.547 191.222C306.142 191.035 305.612 190.941 305.019 190.941H303.273V199.33C303.273 199.423 303.242 199.486 303.21 199.548C303.148 199.611 303.086 199.673 302.992 199.704C302.898 199.735 302.774 199.767 302.587 199.798C302.431 199.829 302.212 199.829 301.963 199.829C301.713 199.829 301.495 199.829 301.339 199.798C301.152 199.767 301.027 199.735 300.934 199.704C300.84 199.673 300.747 199.611 300.716 199.548C300.684 199.486 300.653 199.423 300.653 199.33V181.087C300.653 180.713 300.747 180.432 300.965 180.276C301.183 180.12 301.402 180.027 301.62 180.027H305.83C306.298 180.027 306.734 180.058 307.046 180.058C307.389 180.089 307.67 180.12 307.95 180.151C308.699 180.276 309.385 180.494 309.977 180.775C310.539 181.056 311.038 181.43 311.443 181.867C311.817 182.303 312.129 182.802 312.316 183.363C312.535 183.925 312.628 184.548 312.628 185.235C312.628 185.889 312.535 186.482 312.347 187.012C312.191 187.511 311.911 187.979 311.599 188.384C311.256 188.79 310.851 189.133 310.383 189.413C309.915 189.725 309.385 189.975 308.824 190.162C309.135 190.318 309.447 190.505 309.697 190.723C309.946 190.941 310.196 191.191 310.445 191.503C310.663 191.814 310.882 192.157 311.069 192.563C311.287 192.937 311.474 193.405 311.693 193.873L313.47 198.238C313.595 198.582 313.688 198.862 313.72 198.987C313.782 199.143 313.782 199.268 313.782 199.33ZM309.853 185.484C309.853 184.736 309.666 184.081 309.323 183.551C308.979 183.02 308.418 182.615 307.607 182.397C307.358 182.334 307.046 182.272 306.734 182.241C306.422 182.21 305.986 182.178 305.487 182.178H303.273V188.821H305.83C306.516 188.821 307.108 188.758 307.607 188.571C308.106 188.415 308.543 188.166 308.886 187.885C309.198 187.573 309.447 187.23 309.603 186.825C309.759 186.42 309.853 185.983 309.853 185.484Z" fill="white"/>
<path d="M330.459 198.644C330.459 198.831 330.459 198.987 330.428 199.143C330.428 199.268 330.397 199.392 330.334 199.486C330.303 199.579 330.241 199.642 330.178 199.673C330.116 199.704 330.022 199.735 329.929 199.735H318.297C318.047 199.735 317.829 199.642 317.673 199.486C317.486 199.33 317.424 199.08 317.424 198.706V198.145C317.424 198.02 317.424 197.895 317.455 197.771C317.455 197.677 317.486 197.552 317.548 197.428C317.58 197.303 317.673 197.147 317.767 196.991C317.829 196.835 317.954 196.648 318.079 196.461L327.184 182.21H318.203C318.079 182.21 318.016 182.21 317.923 182.178C317.86 182.116 317.798 182.054 317.767 181.96C317.704 181.898 317.673 181.773 317.673 181.648C317.642 181.492 317.642 181.336 317.642 181.149C317.642 180.962 317.642 180.775 317.673 180.65C317.673 180.494 317.704 180.37 317.767 180.276C317.798 180.214 317.86 180.12 317.923 180.089C318.016 180.058 318.079 180.027 318.203 180.027H329.149C329.43 180.027 329.648 180.12 329.804 180.276C329.96 180.432 330.053 180.682 330.053 180.993V181.586C330.053 181.742 330.022 181.898 330.022 182.022C329.991 182.147 329.96 182.272 329.898 182.397C329.866 182.553 329.773 182.677 329.71 182.833C329.617 182.989 329.492 183.176 329.367 183.363L320.324 197.521H329.929C330.116 197.521 330.241 197.615 330.334 197.771C330.428 197.958 330.459 198.238 330.459 198.644Z" fill="white"/>
</svg>
