<svg width="35" height="35" viewBox="0 0 35 35" fill="none" xmlns="http://www.w3.org/2000/svg">
<rect width="7" height="7" fill="white"/>
<rect x="14" width="7" height="7" fill="white"/>
<rect x="28" width="7" height="7" fill="white"/>
<rect x="28" y="14" width="7" height="7" fill="white"/>
<rect x="14" y="14" width="7" height="7" fill="white"/>
<rect y="14" width="7" height="7" fill="white"/>
<rect y="28" width="7" height="7" fill="white"/>
<rect x="14" y="28" width="7" height="7" fill="white"/>
<rect x="28" y="28" width="7" height="7" fill="white"/>
</svg>
